…
Then, we can use the `cancer_model` to make predictions, setting the threshold for predicting the positive class (malignant in this case) to 0.6 for example purposes:

``` r
(cancer_predictions <- glm_predict(cancer_model, "malignant"))
#> $augment
#> # A tibble: 426 x 11
#>    .rownames malignant texture_mean radius_mean .fitted  .resid .std.resid
#>    <chr>         <dbl>        <dbl>       <dbl>   <dbl>   <dbl>      <dbl>
#>  1 415               1         29.8       15.1  9.13e-1  0.425      0.429 
#>  2 463               0         27.0       14.4  7.38e-1 -1.64      -1.66  
#>  3 179               0         22.2       13.0  2.05e-1 -0.677     -0.680 
#>  4 526               0         13.1        8.57 4.45e-4 -0.0299    -0.0299
#>  5 195               1         23.2       14.9  6.69e-1  0.897      0.902 
#>  6 118               1         16.7       14.9  3.42e-1  1.47       1.47  
#>  7 299               0         18.2       14.3  2.78e-1 -0.808     -0.811 
#>  8 229               0         24.0       12.6  2.01e-1 -0.669     -0.674 
#>  9 244               0         23.8       13.8  4.28e-1 -1.06      -1.06  
#> 10 14                1         24.0       15.8  8.64e-1  0.540      0.543 
#> # … with 416 more rows, and 4 more variables: .hat <dbl>, .sigma <dbl>,
#> #   .cooksd <dbl>, .prediction <dbl>
…
The function returns the `augment` object which contains the predictions (`.prediction` column) and some statistics. The function also returns the accuracy, precision and recall of the predictions. This data is grouped in a named list, so the components can be accessed by name or index:

``` r
cancer_predictions$augment
#> # A tibble: 426 x 11
#>    .rownames malignant texture_mean radius_mean .fitted  .resid .std.resid
#>    <chr>         <dbl>        <dbl>       <dbl>   <dbl>   <dbl>      <dbl>
#>  1 415               1         29.8       15.1  9.13e-1  0.425      0.429 
#>  2 463               0         27.0       14.4  7.38e-1 -1.64      -1.66  
#>  3 179               0         22.2       13.0  2.05e-1 -0.677     -0.680 
#>  4 526               0         13.1        8.57 4.45e-4 -0.0299    -0.0299
#>  5 195               1         23.2       14.9  6.69e-1  0.897      0.902 
#>  6 118               1         16.7       14.9  3.42e-1  1.47       1.47  
#>  7 299               0         18.2       14.3  2.78e-1 -0.808     -0.811 
#>  8 229               0         24.0       12.6  2.01e-1 -0.669     -0.674 
#>  9 244               0         23.8       13.8  4.28e-1 -1.06      -1.06  
#> 10 14                1         24.0       15.8  8.64e-1  0.540      0.543 
#> # … with 416 more rows, and 4 more variables: .hat <dbl>, .sigma <dbl>,
#> #   .cooksd <dbl>, .prediction <dbl>
cancer_predictions$precision
#> [1] 0.8863636
cancer_predictions[4]
#> $recall
#> [1] 0.7852349
```

You can also pass a different dataset (one not used to create the `glm`) to make predictions with `glm_predict`. To do so, you just need to specify the dataset with the `newdata` argument.

``` r
glm_predict(cancer_model, "malignant", threshold=0.6, newdata=cancer_new)
#> $augment
#> # A tibble: 143 x 13
#>    malignant radius_mean texture_mean perimeter_mean area_mean smoothness_mean
#>        <dbl>       <dbl>        <dbl>          <dbl>     <dbl>           <dbl>
#>  1         1        18.0         10.4          123.      1001           0.118 
#>  2         1        20.6         17.8          133.      1326           0.0847
#>  3         1        13           21.8           87.5      520.          0.127 
#>  4         1        13.7         22.6           93.6      578.          0.113 
#>  5         1        14.7         20.1           94.7      684.          0.0987
#>  6         1        16.1         20.7          108.       799.          0.117 
#>  7         0        13.1         15.7           85.6      520           0.108 
#>  8         1        18.6         20.2          122.      1094           0.0944
#>  9         1        11.8         18.7           77.9      441.          0.111 
#> 10         1        16.1         17.9          107        807.          0.104 
#> # … with 133 more rows, and 7 more variables: compactness_mean <dbl>,
#> #   concavity_mean <dbl>, concave_points_mean <dbl>, symmetry_mean <dbl>,
#> #   fractal_dimension_mean <dbl>, .fitted <dbl>, .prediction <dbl>
…
