glmPredict • glmPredict
…
Now if we want to see which samples in cancer_subset our model predicts are malignant, we can use the glm_predict function:

(preds <- glm_predict(cancer_model, "malignant"))
#> $augment
#> # A tibble: 426 x 11
#>    .rownames malignant texture_mean radius_mean .fitted  .resid .std.resid
#>    <chr>         <dbl>        <dbl>       <dbl>   <dbl>   <dbl>      <dbl>
#>  1 415               1         29.8       15.1  9.13e-1  0.425      0.429 
#>  2 463               0         27.0       14.4  7.38e-1 -1.64      -1.66  
#>  3 179               0         22.2       13.0  2.05e-1 -0.677     -0.680 
#>  4 526               0         13.1        8.57 4.45e-4 -0.0299    -0.0299
#>  5 195               1         23.2       14.9  6.69e-1  0.897      0.902 
#>  6 118               1         16.7       14.9  3.42e-1  1.47       1.47  
#>  7 299               0         18.2       14.3  2.78e-1 -0.808     -0.811 
#>  8 229               0         24.0       12.6  2.01e-1 -0.669     -0.674 
#>  9 244               0         23.8       13.8  4.28e-1 -1.06      -1.06  
#> 10 14                1         24.0       15.8  8.64e-1  0.540      0.543 
#> # … with 416 more rows, and 4 more variables: .hat <dbl>, .sigma <dbl>,
#> #   .cooksd <dbl>, .prediction <dbl>
…
Under the hood, glm_predict() runs augment.glm(type.predict="response") on the model. This returns the predicted probability of each sample being in the positive class, and glm_predict() compares this probability to a certain threshold to classify each sample as either positive (malignant) or negative (benign). The predictions are appended to the augment.glm tibble, and returned from the function. Also returned from the function are the accuracy, precision and recall of the predictions. These are different metrics that describe how well the model has classified the data.

All of the return data is bundled in a named list, so if you save the output of glm_predict() to a variable like we did above, you can access the components any way you’d access a list:

preds$augment
#> # A tibble: 426 x 11
#>    .rownames malignant texture_mean radius_mean .fitted  .resid .std.resid
#>    <chr>         <dbl>        <dbl>       <dbl>   <dbl>   <dbl>      <dbl>
#>  1 415               1         29.8       15.1  9.13e-1  0.425      0.429 
#>  2 463               0         27.0       14.4  7.38e-1 -1.64      -1.66  
#>  3 179               0         22.2       13.0  2.05e-1 -0.677     -0.680 
#>  4 526               0         13.1        8.57 4.45e-4 -0.0299    -0.0299
#>  5 195               1         23.2       14.9  6.69e-1  0.897      0.902 
#>  6 118               1         16.7       14.9  3.42e-1  1.47       1.47  
#>  7 299               0         18.2       14.3  2.78e-1 -0.808     -0.811 
#>  8 229               0         24.0       12.6  2.01e-1 -0.669     -0.674 
#>  9 244               0         23.8       13.8  4.28e-1 -1.06      -1.06  
#> 10 14                1         24.0       15.8  8.64e-1  0.540      0.543 
#> # … with 416 more rows, and 4 more variables: .hat <dbl>, .sigma <dbl>,
#> #   .cooksd <dbl>, .prediction <dbl>
…
